^C:\USERS\CEBEP9HUH\SOURCE\REPOS\HOMEWORK_15\DEBUG\HOMEWORK_15.OBJ
C:\USERS\CEBEP9HUH\SOURCE\REPOS\HOMEWORK_15\DEBUG\HOMEWORK_15.EXE
C:\USERS\CEBEP9HUH\SOURCE\REPOS\HOMEWORK_15\DEBUG\HOMEWORK_15.ILK
C:\USERS\CEBEP9HUH\SOURCE\REPOS\HOMEWORK_15\DEBUG\HOMEWORK_15.PDB
